^C:\__MAKAR\C++\HOMEWORK_VECTOR\HOMEWORK_VECTOR\MAIN.CPP
C:\__MAKAR\C++\HOMEWORK_VECTOR\HOMEWORK_VECTOR\X64\DEBUG\VC142.PDB
C:\__MAKAR\C++\HOMEWORK_VECTOR\HOMEWORK_VECTOR\X64\DEBUG\VC142.IDB
C:\__MAKAR\C++\HOMEWORK_VECTOR\HOMEWORK_VECTOR\X64\DEBUG\MAIN.OBJ
